{"failedCount":0,"prefixedPath":"classpath:examples\/users\/apitest.feature","packageQualifiedName":"examples.users.apitest","loopIndex":-1,"relativePath":"examples\/users\/apitest.feature","scenarioResults":[{"sectionIndex":0,"stepResults":[{"result":{"nanos":10927600,"startTime":1700930231620,"endTime":1700930231631,"millis":10.9276,"status":"passed"},"step":{"background":true,"line":3,"prefix":"Given","index":0,"text":"url applicationBaseUrl"}},{"result":{"nanos":10864700,"startTime":1700930231633,"endTime":1700930231644,"millis":10.8647,"status":"passed"},"step":{"background":true,"line":4,"prefix":"Given","index":1,"text":"print applicationBaseUrl"},"stepLog":"22:07:11.643 [print] https:\/\/reqres.in \n"},{"result":{"nanos":584900,"startTime":1700930231645,"endTime":1700930231646,"millis":0.5849,"status":"passed"},"step":{"line":9,"prefix":"Given","index":0,"text":"path '\/api\/users?page=2'"}},{"result":{"nanos":1221837100,"startTime":1700930231645,"endTime":1700930232867,"millis":1221.8371,"status":"passed"},"step":{"line":10,"prefix":"And","index":1,"text":"method get"},"stepLog":"22:07:12.031 request:\n1 > GET https:\/\/reqres.in\/api\/users%3Fpage=2\n1 > Host: reqres.in\n1 > Connection: Keep-Alive\n1 > User-Agent: Apache-HttpClient\/4.5.14 (Java\/11.0.20)\n1 > Accept-Encoding: gzip,deflate\n\n\n22:07:12.865 response time in milliseconds: 827\n1 < 200\n1 < Date: Sat, 25 Nov 2023 16:37:13 GMT\n1 < Content-Type: application\/json; charset=utf-8\n1 < Transfer-Encoding: chunked\n1 < Connection: keep-alive\n1 < Report-To: {\"group\":\"heroku-nel\",\"max_age\":3600,\"endpoints\":[{\"url\":\"https:\/\/nel.heroku.com\/reports?ts=1700912182&sid=c4c9725f-1ab0-44d8-820f-430df2718e11&s=Krb5eCVKYz6XmOp6l4YOshr8vhowM3%2F9bZjUODEJ9iw%3D\"}]}\n1 < Reporting-Endpoints: heroku-nel=https:\/\/nel.heroku.com\/reports?ts=1700912182&sid=c4c9725f-1ab0-44d8-820f-430df2718e11&s=Krb5eCVKYz6XmOp6l4YOshr8vhowM3%2F9bZjUODEJ9iw%3D\n1 < Nel: {\"report_to\":\"heroku-nel\",\"max_age\":3600,\"success_fraction\":0.005,\"failure_fraction\":0.05,\"response_headers\":[\"Via\"]}\n1 < X-Powered-By: Express\n1 < Access-Control-Allow-Origin: *\n1 < Etag: W\/\"2c1-N6Rqerxquq2kgQhL51EiSg4x0R8\"\n1 < Via: 1.1 vegur\n1 < Cache-Control: max-age=14400\n1 < CF-Cache-Status: REVALIDATED\n1 < Vary: Accept-Encoding\n1 < Server: cloudflare\n1 < CF-RAY: 82bb50a39e488528-BOM\n{\"page\":1,\"per_page\":6,\"total\":12,\"total_pages\":2,\"data\":[{\"id\":1,\"name\":\"cerulean\",\"year\":2000,\"color\":\"#98B2D1\",\"pantone_value\":\"15-4020\"},{\"id\":2,\"name\":\"fuchsia rose\",\"year\":2001,\"color\":\"#C74375\",\"pantone_value\":\"17-2031\"},{\"id\":3,\"name\":\"true red\",\"year\":2002,\"color\":\"#BF1932\",\"pantone_value\":\"19-1664\"},{\"id\":4,\"name\":\"aqua sky\",\"year\":2003,\"color\":\"#7BC4C4\",\"pantone_value\":\"14-4811\"},{\"id\":5,\"name\":\"tigerlily\",\"year\":2004,\"color\":\"#E2583E\",\"pantone_value\":\"17-1456\"},{\"id\":6,\"name\":\"blue turquoise\",\"year\":2005,\"color\":\"#53B0AE\",\"pantone_value\":\"15-5217\"}],\"support\":{\"url\":\"https:\/\/reqres.in\/#support-heading\",\"text\":\"To keep ReqRes free, contributions towards server costs are appreciated!\"}}\n\n"},{"result":{"nanos":2620900,"startTime":1700930232868,"endTime":1700930232871,"millis":2.6209,"status":"passed"},"step":{"line":11,"prefix":"And","index":2,"text":"print response"},"stepLog":"22:07:12.870 [print] {\n  \"page\": 1,\n  \"per_page\": 6,\n  \"total\": 12,\n  \"total_pages\": 2,\n  \"data\": [\n    {\n      \"id\": 1,\n      \"name\": \"cerulean\",\n      \"year\": 2000,\n      \"color\": \"#98B2D1\",\n      \"pantone_value\": \"15-4020\"\n    },\n    {\n      \"id\": 2,\n      \"name\": \"fuchsia rose\",\n      \"year\": 2001,\n      \"color\": \"#C74375\",\n      \"pantone_value\": \"17-2031\"\n    },\n    {\n      \"id\": 3,\n      \"name\": \"true red\",\n      \"year\": 2002,\n      \"color\": \"#BF1932\",\n      \"pantone_value\": \"19-1664\"\n    },\n    {\n      \"id\": 4,\n      \"name\": \"aqua sky\",\n      \"year\": 2003,\n      \"color\": \"#7BC4C4\",\n      \"pantone_value\": \"14-4811\"\n    },\n    {\n      \"id\": 5,\n      \"name\": \"tigerlily\",\n      \"year\": 2004,\n      \"color\": \"#E2583E\",\n      \"pantone_value\": \"17-1456\"\n    },\n    {\n      \"id\": 6,\n      \"name\": \"blue turquoise\",\n      \"year\": 2005,\n      \"color\": \"#53B0AE\",\n      \"pantone_value\": \"15-5217\"\n    }\n  ],\n  \"support\": {\n    \"url\": \"https:\/\/reqres.in\/#support-heading\",\n    \"text\": \"To keep ReqRes free, contributions towards server costs are appreciated!\"\n  }\n}\n \n"},{"result":{"nanos":51200,"startTime":1700930232871,"endTime":1700930232871,"millis":0.0512,"status":"passed"},"step":{"line":12,"prefix":"And","index":3,"text":"status 200"}},{"result":{"nanos":23139700,"startTime":1700930232871,"endTime":1700930232894,"millis":23.1397,"status":"passed"},"step":{"line":13,"prefix":"And","index":4,"text":"match responseStatus == 200"}},{"result":{"nanos":5301300,"startTime":1700930232884,"endTime":1700930232889,"millis":5.3013,"status":"passed"},"step":{"line":14,"prefix":"And","index":5,"text":"match response.data[0].id == 1"}},{"result":{"nanos":1602900,"startTime":1700930232899,"endTime":1700930232901,"millis":1.6029,"status":"passed"},"step":{"line":15,"prefix":"And","index":6,"text":"match response.data[0].name contains 'ceru'"}}],"line":8,"description":"","durationMillis":1276.9303,"failed":false,"tags":["getapi"],"executorName":"main","name":"get the list of user detail","startTime":1700930231501,"refId":"[1:8]","endTime":1700930232901,"exampleIndex":-1}],"callDepth":0,"name":"Test rest api","description":"","resultDate":"2023-11-25 10:07:12 PM","durationMillis":1276.9303,"passedCount":1}